%YAML 1.1
%TAG !u! tag:unity3d.com,2011:
--- !u!114 &11400000
MonoBehaviour:
  m_ObjectHideFlags: 0
  m_CorrespondingSourceObject: {fileID: 0}
  m_PrefabInstance: {fileID: 0}
  m_PrefabAsset: {fileID: 0}
  m_GameObject: {fileID: 0}
  m_Enabled: 1
  m_EditorHideFlags: 0
  m_Script: {fileID: 11500000, guid: e262557487aebcb40aa8ea4d3e24dc9f, type: 3}
  m_Name: SwitchPro
  m_EditorClassIdentifier: 
  deviceName: Switch Pro Controller
  interactionButton: {fileID: 21300000, guid: cc2996f9a0e0ec54897179d0d11d0785, type: 3}
