%YAML 1.1
%TAG !u! tag:unity3d.com,2011:
--- !u!1 &1616309213
GameObject:
  m_ObjectHideFlags: 0
  m_CorrespondingSourceObject: {fileID: 0}
  m_PrefabInstance: {fileID: 0}
  m_PrefabAsset: {fileID: 0}
  serializedVersion: 6
  m_Component:
  - component: {fileID: 1616309214}
  - component: {fileID: 1616309216}
  - component: {fileID: 1616309215}
  m_Layer: 11
  m_Name: AimingLaser
  m_TagString: Untagged
  m_Icon: {fileID: 0}
  m_NavMeshLayer: 0
  m_StaticEditorFlags: 0
  m_IsActive: 1
--- !u!4 &1616309214
Transform:
  m_ObjectHideFlags: 0
  m_CorrespondingSourceObject: {fileID: 0}
  m_PrefabInstance: {fileID: 0}
  m_PrefabAsset: {fileID: 0}
  m_GameObject: {fileID: 1616309213}
  m_LocalRotation: {x: 0, y: 0, z: 0, w: 1}
  m_LocalPosition: {x: 0, y: 0, z: 0}
  m_LocalScale: {x: 1, y: 1, z: 1}
  m_Children: []
  m_Father: {fileID: 7441134874120380148}
  m_RootOrder: 3
  m_LocalEulerAnglesHint: {x: 0, y: 0, z: 0}
--- !u!120 &1616309216
LineRenderer:
  m_ObjectHideFlags: 0
  m_CorrespondingSourceObject: {fileID: 0}
  m_PrefabInstance: {fileID: 0}
  m_PrefabAsset: {fileID: 0}
  m_GameObject: {fileID: 1616309213}
  m_Enabled: 1
  m_CastShadows: 1
  m_ReceiveShadows: 1
  m_DynamicOccludee: 1
  m_MotionVectors: 0
  m_LightProbeUsage: 0
  m_ReflectionProbeUsage: 0
  m_RayTracingMode: 0
  m_RayTraceProcedural: 0
  m_RenderingLayerMask: 1
  m_RendererPriority: 0
  m_Materials:
  - {fileID: 2100000, guid: 9dfc825aed78fcd4ba02077103263b40, type: 2}
  m_StaticBatchInfo:
    firstSubMesh: 0
    subMeshCount: 0
  m_StaticBatchRoot: {fileID: 0}
  m_ProbeAnchor: {fileID: 0}
  m_LightProbeVolumeOverride: {fileID: 0}
  m_ScaleInLightmap: 1
  m_ReceiveGI: 1
  m_PreserveUVs: 0
  m_IgnoreNormalsForChartDetection: 0
  m_ImportantGI: 0
  m_StitchLightmapSeams: 1
  m_SelectedEditorRenderState: 3
  m_MinimumChartSize: 4
  m_AutoUVMaxDistance: 0.5
  m_AutoUVMaxAngle: 89
  m_LightmapParameters: {fileID: 0}
  m_SortingLayerID: 2106224331
  m_SortingLayer: 2
  m_SortingOrder: 0
  m_Positions:
  - {x: 0, y: 0, z: 0}
  - {x: 0, y: 0, z: 1}
  m_Parameters:
    serializedVersion: 3
    widthMultiplier: 1
    widthCurve:
      serializedVersion: 2
      m_Curve:
      - serializedVersion: 3
        time: 0
        value: 0.03125
        inSlope: 0
        outSlope: 0
        tangentMode: 0
        weightedMode: 0
        inWeight: 0.33333334
        outWeight: 0.33333334
      m_PreInfinity: 2
      m_PostInfinity: 2
      m_RotationOrder: 4
    colorGradient:
      serializedVersion: 2
      key0: {r: 1, g: 1, b: 1, a: 1}
      key1: {r: 1, g: 1, b: 1, a: 1}
      key2: {r: 0, g: 0, b: 0, a: 0}
      key3: {r: 0, g: 0, b: 0, a: 0}
      key4: {r: 0, g: 0, b: 0, a: 0}
      key5: {r: 0, g: 0, b: 0, a: 0}
      key6: {r: 0, g: 0, b: 0, a: 0}
      key7: {r: 0, g: 0, b: 0, a: 0}
      ctime0: 0
      ctime1: 65535
      ctime2: 0
      ctime3: 0
      ctime4: 0
      ctime5: 0
      ctime6: 0
      ctime7: 0
      atime0: 0
      atime1: 65535
      atime2: 0
      atime3: 0
      atime4: 0
      atime5: 0
      atime6: 0
      atime7: 0
      m_Mode: 0
      m_NumColorKeys: 2
      m_NumAlphaKeys: 2
    numCornerVertices: 0
    numCapVertices: 0
    alignment: 0
    textureMode: 0
    shadowBias: 0.5
    generateLightingData: 0
  m_UseWorldSpace: 1
  m_Loop: 0
--- !u!114 &1616309215
MonoBehaviour:
  m_ObjectHideFlags: 0
  m_CorrespondingSourceObject: {fileID: 0}
  m_PrefabInstance: {fileID: 0}
  m_PrefabAsset: {fileID: 0}
  m_GameObject: {fileID: 1616309213}
  m_Enabled: 1
  m_EditorHideFlags: 0
  m_Script: {fileID: 11500000, guid: 112aad323c9243146a06eb4d0b102bbc, type: 3}
  m_Name: 
  m_EditorClassIdentifier: 
--- !u!1001 &4284604410551672098
PrefabInstance:
  m_ObjectHideFlags: 0
  serializedVersion: 2
  m_Modification:
    m_TransformParent: {fileID: 0}
    m_Modifications:
    - target: {fileID: -4043006891072872542, guid: 1776a65e90b67e44f87c20bb87c47a8a,
        type: 3}
      propertyPath: m_Size.x
      value: 0.84259415
      objectReference: {fileID: 0}
    - target: {fileID: -4043006891072872542, guid: 1776a65e90b67e44f87c20bb87c47a8a,
        type: 3}
      propertyPath: m_Size.y
      value: 0.84840393
      objectReference: {fileID: 0}
    - target: {fileID: -4043006891072872542, guid: 1776a65e90b67e44f87c20bb87c47a8a,
        type: 3}
      propertyPath: m_Offset.x
      value: 0
      objectReference: {fileID: 0}
    - target: {fileID: 1247319602030248371, guid: 1776a65e90b67e44f87c20bb87c47a8a,
        type: 3}
      propertyPath: m_Layer
      value: 11
      objectReference: {fileID: 0}
    - target: {fileID: 1247319602030248371, guid: 1776a65e90b67e44f87c20bb87c47a8a,
        type: 3}
      propertyPath: m_IsActive
      value: 0
      objectReference: {fileID: 0}
    - target: {fileID: 1321068741085740541, guid: 1776a65e90b67e44f87c20bb87c47a8a,
        type: 3}
      propertyPath: m_Controller
      value: 
      objectReference: {fileID: 9100000, guid: 8ae4a65e27187964ca8f26e4fad85d41, type: 2}
    - target: {fileID: 1338194759042779338, guid: 1776a65e90b67e44f87c20bb87c47a8a,
        type: 3}
      propertyPath: m_Layer
      value: 11
      objectReference: {fileID: 0}
    - target: {fileID: 6643303941778598210, guid: 1776a65e90b67e44f87c20bb87c47a8a,
        type: 3}
      propertyPath: m_Size.x
      value: 1
      objectReference: {fileID: 0}
    - target: {fileID: 6643303941778598210, guid: 1776a65e90b67e44f87c20bb87c47a8a,
        type: 3}
      propertyPath: m_Size.y
      value: 1
      objectReference: {fileID: 0}
    - target: {fileID: 6643303941778598210, guid: 1776a65e90b67e44f87c20bb87c47a8a,
        type: 3}
      propertyPath: m_Sprite
      value: 
      objectReference: {fileID: 8297308108832249109, guid: e4b4b1cb71061814ab32e9f76e8887a8,
        type: 3}
    - target: {fileID: 6643303941778598220, guid: 1776a65e90b67e44f87c20bb87c47a8a,
        type: 3}
      propertyPath: m_Layer
      value: 11
      objectReference: {fileID: 0}
    - target: {fileID: 6643303942702121937, guid: 1776a65e90b67e44f87c20bb87c47a8a,
        type: 3}
      propertyPath: m_Name
      value: Turret_V1
      objectReference: {fileID: 0}
    - target: {fileID: 6643303942702121937, guid: 1776a65e90b67e44f87c20bb87c47a8a,
        type: 3}
      propertyPath: m_Layer
      value: 11
      objectReference: {fileID: 0}
    - target: {fileID: 6643303942702121942, guid: 1776a65e90b67e44f87c20bb87c47a8a,
        type: 3}
      propertyPath: m_RootOrder
      value: 0
      objectReference: {fileID: 0}
    - target: {fileID: 6643303942702121942, guid: 1776a65e90b67e44f87c20bb87c47a8a,
        type: 3}
      propertyPath: m_LocalPosition.x
      value: -10.5
      objectReference: {fileID: 0}
    - target: {fileID: 6643303942702121942, guid: 1776a65e90b67e44f87c20bb87c47a8a,
        type: 3}
      propertyPath: m_LocalPosition.y
      value: 43.5
      objectReference: {fileID: 0}
    - target: {fileID: 6643303942702121942, guid: 1776a65e90b67e44f87c20bb87c47a8a,
        type: 3}
      propertyPath: m_LocalPosition.z
      value: 0.5
      objectReference: {fileID: 0}
    - target: {fileID: 6643303942702121942, guid: 1776a65e90b67e44f87c20bb87c47a8a,
        type: 3}
      propertyPath: m_LocalRotation.w
      value: 1
      objectReference: {fileID: 0}
    - target: {fileID: 6643303942702121942, guid: 1776a65e90b67e44f87c20bb87c47a8a,
        type: 3}
      propertyPath: m_LocalRotation.x
      value: 0
      objectReference: {fileID: 0}
    - target: {fileID: 6643303942702121942, guid: 1776a65e90b67e44f87c20bb87c47a8a,
        type: 3}
      propertyPath: m_LocalRotation.y
      value: 0
      objectReference: {fileID: 0}
    - target: {fileID: 6643303942702121942, guid: 1776a65e90b67e44f87c20bb87c47a8a,
        type: 3}
      propertyPath: m_LocalRotation.z
      value: 0
      objectReference: {fileID: 0}
    - target: {fileID: 6643303942702121942, guid: 1776a65e90b67e44f87c20bb87c47a8a,
        type: 3}
      propertyPath: m_LocalEulerAnglesHint.x
      value: 0
      objectReference: {fileID: 0}
    - target: {fileID: 6643303942702121942, guid: 1776a65e90b67e44f87c20bb87c47a8a,
        type: 3}
      propertyPath: m_LocalEulerAnglesHint.y
      value: 0
      objectReference: {fileID: 0}
    - target: {fileID: 6643303942702121942, guid: 1776a65e90b67e44f87c20bb87c47a8a,
        type: 3}
      propertyPath: m_LocalEulerAnglesHint.z
      value: 0
      objectReference: {fileID: 0}
    - target: {fileID: 8415818011876917847, guid: 1776a65e90b67e44f87c20bb87c47a8a,
        type: 3}
      propertyPath: m_Enabled
      value: 0
      objectReference: {fileID: 0}
    - target: {fileID: 8893480053408933314, guid: 1776a65e90b67e44f87c20bb87c47a8a,
        type: 3}
      propertyPath: m_Sprite
      value: 
      objectReference: {fileID: 21300000, guid: 4530805b50e80c0488602c924cadea70,
        type: 3}
    - target: {fileID: 8893480053408933314, guid: 1776a65e90b67e44f87c20bb87c47a8a,
        type: 3}
      propertyPath: m_SortingLayer
      value: 2
      objectReference: {fileID: 0}
    - target: {fileID: 8893480053408933314, guid: 1776a65e90b67e44f87c20bb87c47a8a,
        type: 3}
      propertyPath: m_SortingLayerID
      value: 2106224331
      objectReference: {fileID: 0}
    - target: {fileID: 9051932286246335630, guid: 1776a65e90b67e44f87c20bb87c47a8a,
        type: 3}
      propertyPath: m_Enabled
      value: 1
      objectReference: {fileID: 0}
    - target: {fileID: 9150991727144296482, guid: 1776a65e90b67e44f87c20bb87c47a8a,
        type: 3}
      propertyPath: m_BodyType
      value: 1
      objectReference: {fileID: 0}
    m_RemovedComponents:
    - {fileID: 493024757, guid: 1776a65e90b67e44f87c20bb87c47a8a, type: 3}
    - {fileID: 6171489189504094636, guid: 1776a65e90b67e44f87c20bb87c47a8a, type: 3}
    - {fileID: -2840969992912604920, guid: 1776a65e90b67e44f87c20bb87c47a8a, type: 3}
    - {fileID: 4259932773219015585, guid: 1776a65e90b67e44f87c20bb87c47a8a, type: 3}
    - {fileID: 4553992719742108645, guid: 1776a65e90b67e44f87c20bb87c47a8a, type: 3}
    - {fileID: 9051932286246335630, guid: 1776a65e90b67e44f87c20bb87c47a8a, type: 3}
  m_SourcePrefab: {fileID: 100100000, guid: 1776a65e90b67e44f87c20bb87c47a8a, type: 3}
--- !u!1 &7441134874120380147 stripped
GameObject:
  m_CorrespondingSourceObject: {fileID: 6643303942702121937, guid: 1776a65e90b67e44f87c20bb87c47a8a,
    type: 3}
  m_PrefabInstance: {fileID: 4284604410551672098}
  m_PrefabAsset: {fileID: 0}
--- !u!4 &7441134874120380148 stripped
Transform:
  m_CorrespondingSourceObject: {fileID: 6643303942702121942, guid: 1776a65e90b67e44f87c20bb87c47a8a,
    type: 3}
  m_PrefabInstance: {fileID: 4284604410551672098}
  m_PrefabAsset: {fileID: 0}
--- !u!1 &7441134875008791662 stripped
GameObject:
  m_CorrespondingSourceObject: {fileID: 6643303941778598220, guid: 1776a65e90b67e44f87c20bb87c47a8a,
    type: 3}
  m_PrefabInstance: {fileID: 4284604410551672098}
  m_PrefabAsset: {fileID: 0}
--- !u!1 &3019593222797776360 stripped
GameObject:
  m_CorrespondingSourceObject: {fileID: 1338194759042779338, guid: 1776a65e90b67e44f87c20bb87c47a8a,
    type: 3}
  m_PrefabInstance: {fileID: 4284604410551672098}
  m_PrefabAsset: {fileID: 0}
--- !u!114 &80324069
MonoBehaviour:
  m_ObjectHideFlags: 0
  m_CorrespondingSourceObject: {fileID: 0}
  m_PrefabInstance: {fileID: 0}
  m_PrefabAsset: {fileID: 0}
  m_GameObject: {fileID: 7441134874120380147}
  m_Enabled: 1
  m_EditorHideFlags: 0
  m_Script: {fileID: 11500000, guid: 028bcd8e66c26ac4a904fda1bcc88540, type: 3}
  m_Name: 
  m_EditorClassIdentifier: 
  maximumShootingDistance: 100
  aimTime: 2
  pauseTime: 0.2
  lasersInSalve: 3
--- !u!114 &80324070
MonoBehaviour:
  m_ObjectHideFlags: 0
  m_CorrespondingSourceObject: {fileID: 0}
  m_PrefabInstance: {fileID: 0}
  m_PrefabAsset: {fileID: 0}
  m_GameObject: {fileID: 7441134874120380147}
  m_Enabled: 1
  m_EditorHideFlags: 0
  m_Script: {fileID: 11500000, guid: 1e29d7623d746a24a954bec1f29c051d, type: 3}
  m_Name: 
  m_EditorClassIdentifier: 
  unitName: Turret
  dieSound: {fileID: 8300000, guid: d412534cbfc4dbe44a8dbf94cfc4a2cb, type: 3}
  hitSounds:
  - {fileID: 8300000, guid: 2239bc95976286e4d8850850ed7f8353, type: 3}
  maximumHP: 100
  currentHP: 100
  bullet: {fileID: 5012955232796538483, guid: e4ef13afe4291ce44b62a610df5b3b77, type: 3}
  bulletType: {fileID: 11400000, guid: a8b972f35290cd44bace0c099f43bea6, type: 2}
  bulletOrigin: {x: 0, y: 0.5, z: 0}
  upperBody: {fileID: 7441134875008791662}
  legs: {fileID: 3019593222797776360}
