%YAML 1.1
%TAG !u! tag:unity3d.com,2011:
--- !u!114 &11400000
MonoBehaviour:
  m_ObjectHideFlags: 0
  m_CorrespondingSourceObject: {fileID: 0}
  m_PrefabInstance: {fileID: 0}
  m_PrefabAsset: {fileID: 0}
  m_GameObject: {fileID: 0}
  m_Enabled: 1
  m_EditorHideFlags: 0
  m_Script: {fileID: 11500000, guid: 953571c5d4a41304e92f0d853b81d3db, type: 3}
  m_Name: Hello
  m_EditorClassIdentifier: 
  sentences:
  - 'Hey PanPan! '
  - You should gather as much items as possible when you quit the village.
  - The food and drugs are useful for us to stay in good health.
  - The scrap metal and the energy cells are needed to build new building.
  - All these items are also needed to upgrade your skill !
  speakerIndexes: 00000000
