%YAML 1.1
%TAG !u! tag:unity3d.com,2011:
--- !u!162 &1
EditorUserSettings:
  m_ObjectHideFlags: 0
  serializedVersion: 4
  m_ConfigSettings:
    RecentlyUsedScenePath-0:
      value: 22424703114646680e0b0227036c7e1217191c252226233412051c31edf2352cedf52fa7f234362820
      flags: 0
    RecentlyUsedScenePath-1:
      value: 22424703114646680e0b0227036c6b350503563f22213229
      flags: 0
    RecentlyUsedScenePath-2:
      value: 22424703114646680e0b0227036c7e1217191c252226233401281f3cf0e12037f0fe78fce9332b25
      flags: 0
    RecentlyUsedScenePath-3:
      value: 22424703114646680e0b0227036c73150012146439262f2434
      flags: 0
    RecentlyUsedScenePath-4:
      value: 22424703114646680e0b0227036c6c111b07142f1f2b233e2867083debf42d
      flags: 0
    RecentlyUsedScenePath-5:
      value: 22424703114646680e0b0227036c7c1f18141d383866333e243d04
      flags: 0
    RecentlyUsedScenePath-6:
      value: 22424703114646680e0b0227036c69191a1b192d2966333e243d04
      flags: 0
    RecentlyUsedScenePath-7:
      value: 22424703114646680e0b0227036c6c0417050c192f3a23352367083debf42d
      flags: 0
    RecentlyUsedScenePath-8:
      value: 22424703114646680e0b0227036c7e1217191c2522262334012c0b36eeae2136ebf32f
      flags: 0
    RecentlyUsedScenePath-9:
      value: 22424703114646680e0b0227036c7c021313113e3f66333e243d04
      flags: 0
    UnityEditor.ShaderGraph.Blackboard:
      value: 18135939215a0a5004000b0e15254b524c030a3f2964643d120d1230e9e93a3fd6e826abbd3c3e302a07a37e0901373ae01e0008f707250d171df81a53a5405d41895ac825e0100ec20313c0d91cddccd3d0c7efcca9bd88908fecb0f9cfddf1eff4e7a1b1eae482f0fdafe9e1928b86d888ed909c968797a7cf
      flags: 0
    UnityEditor.ShaderGraph.FloatingWindowsLayout2:
      value: 181344140043005e1a220d3b1f364b524c0c5a27130c293326201334cee5322ca0bd22fbf23f737e343dcb3307350831f53e061bb4510c0a1d1df84253f22f2514d70ccc19c91333cd1f0fcbd95f8bb1879884a69ae6d8f0d1cda9e8fbfefaf9f9dea3fdb9ade882f0feadffff8e85c9fef9bedec98493dcf8ca9389ef81859d899ac7cf9bdd89898ec3f090bf8d
      flags: 0
    UnityEditor.ShaderGraph.InspectorWindow:
      value: 18135939215a0a5004000b0e15254b524c1119263f2d6a722016393ce1eb3d36e5d339f9a560393d3511ea7046333e09f7181d02f50a06241708ee0b05bd4a435f95548717f73713d91006c1c309d0effad0d2f9ddffa5828e91f0beb6fdd1cbfceba0b9f0b3bed8e8f5ade1ff8c978883d3f59e9e919c89eacfcc
      flags: 0
    UnityEditor.ShaderGraph.ToggleSettings:
      value: 18135d1527590858060c032302276919051e1a26296a7c243f3c187fa0e92708f0e220e0e22d09352a0bed30017c5b2be01f0c47b40219221f1ded0b12eb1f0127cc0bcc18c41a5e910d0edbc85193e0dadadbf8e8f9e8ced7dba5e0b6aaaca4dbfeabfef4eae1
      flags: 0
    vcSharedLogLevel:
      value: 0d5e400f0650
      flags: 0
  m_VCAutomaticAdd: 1
  m_VCDebugCom: 0
  m_VCDebugCmd: 0
  m_VCDebugOut: 0
  m_SemanticMergeMode: 2
  m_VCShowFailedCheckout: 1
  m_VCOverwriteFailedCheckoutAssets: 1
  m_VCProjectOverlayIcons: 1
  m_VCHierarchyOverlayIcons: 1
  m_VCOtherOverlayIcons: 1
  m_VCAllowAsyncUpdate: 0
