%YAML 1.1
%TAG !u! tag:unity3d.com,2011:
--- !u!114 &11400000
MonoBehaviour:
  m_ObjectHideFlags: 0
  m_CorrespondingSourceObject: {fileID: 0}
  m_PrefabInstance: {fileID: 0}
  m_PrefabAsset: {fileID: 0}
  m_GameObject: {fileID: 0}
  m_Enabled: 1
  m_EditorHideFlags: 0
  m_Script: {fileID: 11500000, guid: b21d170a26e833b4388a800723b266ac, type: 3}
  m_Name: ScrapMetal
  m_EditorClassIdentifier: 
  materialName: Scrap metal
  image: {fileID: 21300000, guid: bbaf8ab7edb217f45af8f5310bac37e3, type: 3}
