%YAML 1.1
%TAG !u! tag:unity3d.com,2011:
--- !u!114 &11400000
MonoBehaviour:
  m_ObjectHideFlags: 0
  m_CorrespondingSourceObject: {fileID: 0}
  m_PrefabInstance: {fileID: 0}
  m_PrefabAsset: {fileID: 0}
  m_GameObject: {fileID: 0}
  m_Enabled: 1
  m_EditorHideFlags: 0
  m_Script: {fileID: 11500000, guid: e48457ade35d06d489f9397e9f5f6d31, type: 3}
  m_Name: HealEfficiency
  m_EditorClassIdentifier: 
  skillName: Medbots efficiency
  skillImage: {fileID: 21300000, guid: 35366ab7ccf85714aa8c844518c1b5c3, type: 3}
  description: The speed at wich PanPan can walk.
  currentUpgradeLevel: 1
  values:
  - 1
  - 1.25
  - 1.5
  prices:
  - materials:
    - {fileID: 11400000, guid: ce97c21ac0a34e5419e0c6ffc84c7202, type: 2}
    materialAmounts: 90010000
  - materials:
    - {fileID: 11400000, guid: ce97c21ac0a34e5419e0c6ffc84c7202, type: 2}
    - {fileID: 11400000, guid: ae926ba6691c7e94893406a5eada6be1, type: 2}
    materialAmounts: 90010000f4010000
